paper_towel.utf8
…
The evidence for this claim is shown as in the graph.

Some stores close or open during the 52 week period. Create a data frame consisting of the subset of stores that were open throughout the 52 week period (remember the first week of the 52 weeks for which we have sales data is 1583 and the last is 1634) (Hint 1: the store file has information on when each store opened and closed) (Hint 2: You should get a data frame consisting of 1760 stores).

stores_new <- stores %>%
   filter(between(Open, 0, 1583) & between(Clsd, 1634, 10000))

stores_new

## # A tibble: 1,760 x 7
##    IRI_KEY OU    EST_ACV Market_Name       Open  Clsd MskdName
##      <int> <chr>   <dbl> <chr>            <int> <int> <chr>   
##  1  200032 GR      28.1  NEW YORK          1539  9998 Chain5  
##  2  200272 GR      10.8  LOS ANGELES        873  9998 Chain110
##  3  200341 GR      26.9  SAN DIEGO         1197  9998 Chain110
##  4  200379 GR      30.2  SOUTH CAROLINA    1348  9998 Chain56 
##  5  200411 GR      17.1  NEW YORK          1014  9998 Chain53 
##  6  200437 GR      22.6  SAN FRANCISCO     1466  9998 Chain89 
##  7  200439 GR      32.7  WEST TEX/NEW MEX   920  1655 Chain95 
##  8  200485 GR       6.52 OKLAHOMA CITY      490  9998 Chain87 
##  9  200488 GR      31.6  BOSTON            1329  9998 Chain92 
## 10  200489 GR      19.2  HOUSTON            701  9998 Chain25 
## #  with 1,750 more rows
…
df11_SCOTT <- products %>%
  left_join(sales, by = 'UPC') %>%
  mutate(vol = UNITS * VOL_EQ) %>%
  left_join(stores_new, by = 'IRI_KEY') %>%
  filter(L5 == 'SCOTT') %>%
  group_by(Market_Name) %>%
  summarise(Revenue = sum(DOLLARS),
              Volume = sum(vol),
              Average_Price = Revenue / Volume) %>%
    arrange(desc(Average_Price)) 

df11_BOUNTY

## # A tibble: 51 x 4
##    Market_Name       Revenue  Volume Average_Price
##    <chr>               <dbl>   <dbl>         <dbl>
##  1 OKLAHOMA CITY      61944.  20420.          3.03
##  2 WEST TEX/NEW MEX  278525.  93686.          2.97
##  3 DES MOINES        209387.  70545.          2.97
##  4 TULSA,OK           20392.   7018.          2.91
##  5 OMAHA             256160.  88566.          2.89
##  6 EAU CLAIRE        108861.  37855.          2.88
##  7 NEW ORLEANS, LA   174571.  61501.          2.84
##  8 ST. LOUIS         772407. 276979.          2.79
##  9 BUFFALO/ROCHESTER 905607. 325179.          2.78
## 10 BIRMINGHAM/MONTG. 401034. 144063.          2.78
## #  with 41 more rows

df11_SCOTT

## # A tibble: 51 x 4
##    Market_Name       Revenue Volume Average_Price
##    <chr>               <dbl>  <dbl>         <dbl>
##  1 BUFFALO/ROCHESTER  62871. 23964.          2.62
##  2 SEATTLE/TACOMA     84992. 35656.          2.38
##  3 WEST TEX/NEW MEX   32927. 14207.          2.32
##  4 SACRAMENTO         28295. 12230.          2.31
##  5 ST. LOUIS          72870. 31699.          2.30
##  6 SAN FRANCISCO      18509.  8101.          2.28
##  7 PORTLAND,OR        73848. 32554.          2.27
##  8 OMAHA              29628. 13250.          2.24
##  9 DES MOINES         17641.  7920.          2.23
## 10 SYRACUSE           61580. 28209.          2.18
## #  with 41 more rows
…
UPCs vary in absorbency level, i.e., how good the product is at soaking up liquids. Do markets prefer different absorbency levels in their paper towl product? To answer this question, calculate the share of each absorbency level out of total sales for each market (where sales is measure in volume of standardized units). You can drop UPCs that have missing absorbency level for this calculation (so the share is out of all UPCs with absorbency level information). Create a visualization of absorbency level shares that highlights any potential differences in shares across markets. As above, limit your focus to stores that were open in all 52 weeks.

df12 <- products %>%
  filter(!`ABSORBENCY LEVEL` == 'MISSING') %>%
  left_join(sales, by = 'UPC') %>%
  mutate(vol = UNITS * VOL_EQ) %>%
  left_join(stores_new, by = 'IRI_KEY') %>%
  group_by(Market_Name, `ABSORBENCY LEVEL`) %>%
  summarise(Volume = sum(vol),
            num = n(),
            Share = num / Volume)

df12

## # A tibble: 285 x 5
## # Groups:   Market_Name [51]
##    Market_Name       `ABSORBENCY LEVEL`    Volume   num  Share
##    <chr>             <chr>                  <dbl> <int>  <dbl>
##  1 ATLANTA           ABSORBANT            101717.  2695 0.0265
##  2 ATLANTA           CLOTHLIKE ABSORBENCY  13888.   922 0.0664
##  3 ATLANTA           MORE ABSORBANT        27872.   658 0.0236
##  4 ATLANTA           SUPER ABSORBANT       97095.  1793 0.0185
##  5 BIRMINGHAM/MONTG. ABSORBANT             69159.  3362 0.0486
##  6 BIRMINGHAM/MONTG. CLOTHLIKE ABSORBENCY  10294.   710 0.0690
##  7 BIRMINGHAM/MONTG. MORE ABSORBANT        15554.   503 0.0323
##  8 BIRMINGHAM/MONTG. SUPER ABSORBANT       37687.   991 0.0263
##  9 BOSTON            ABSORBANT            570923. 13705 0.0240
## 10 BOSTON            CLOTHLIKE ABSORBENCY  28722.  2078 0.0723
## #  with 275 more rows
…
df13_PRIVATE_LABEL <- products %>%
  left_join(sales, by = 'UPC') %>%
  mutate(vol = UNITS * VOL_EQ) %>%
  left_join(stores_new, by = 'IRI_KEY') %>%
  filter(L5 == 'PRIVATE LABEL') %>%
  group_by(Market_Name, WEEK) %>%
  summarise(Revenue = sum(DOLLARS),
              Volume = sum(vol),
              Average_Price = Revenue / Volume) %>%
    arrange(desc(Average_Price))

df13_BOUNTY

## # A tibble: 2,653 x 5
## # Groups:   Market_Name [51]
##    Market_Name       WEEK Revenue Volume Average_Price
##    <chr>            <int>   <dbl>  <dbl>         <dbl>
##  1 TULSA,OK          1609    246.   67.7          3.63
##  2 SALT LAKE CITY    1603   1982.  557.           3.56
##  3 TULSA,OK          1589    155.   43.8          3.54
##  4 SALT LAKE CITY    1632   2259.  640.           3.53
##  5 WEST TEX/NEW MEX  1631   4417. 1261.           3.50
##  6 WEST TEX/NEW MEX  1601   3980. 1143.           3.48
##  7 WEST TEX/NEW MEX  1630   5411. 1560.           3.47
##  8 NEW ORLEANS, LA   1634   3187.  926.           3.44
##  9 WEST TEX/NEW MEX  1600   4484. 1304.           3.44
## 10 OKLAHOMA CITY     1608    584.  170.           3.44
## #  with 2,643 more rows

df13_SCOTT

## # A tibble: 2,584 x 5
## # Groups:   Market_Name [51]
##    Market_Name    WEEK Revenue Volume Average_Price
##    <chr>         <int>   <dbl>  <dbl>         <dbl>
##  1 GRAND RAPIDS   1631    88.0   21.0          4.19
##  2 GRAND RAPIDS   1629   126.    30.1          4.19
##  3 GRAND RAPIDS   1632   104.    25.0          4.18
##  4 GRAND RAPIDS   1628   130.    31.2          4.17
##  5 GRAND RAPIDS   1630   144.    34.6          4.15
##  6 GRAND RAPIDS   1633    87.1   21.0          4.14
##  7 GRAND RAPIDS   1634   115.    27.8          4.12
##  8 SPOKANE        1622    98.4   27.8          3.53
##  9 SAN FRANCISCO  1610   174.    50.1          3.47
## 10 SPOKANE        1621    64.0   18.7          3.42
## #  with 2,574 more rows

df13_PRIVATE_LABEL

## # A tibble: 2,653 x 5
## # Groups:   Market_Name [51]
##    Market_Name           WEEK Revenue Volume Average_Price
##    <chr>                <int>   <dbl>  <dbl>         <dbl>
##  1 MINNEAPOLIS/ST. PAUL  1632   7529.  3294.          2.29
##  2 MILWAUKEE             1614   4509.  1978.          2.28
##  3 NEW ORLEANS, LA       1594    983.   432.          2.28
##  4 NEW ORLEANS, LA       1611   1466.   644.          2.28
##  5 NEW ORLEANS, LA       1612   2029.   898.          2.26
##  6 NEW ORLEANS, LA       1593   2099.   931.          2.25
##  7 NEW ORLEANS, LA       1610   2289.  1020.          2.24
##  8 NEW ORLEANS, LA       1613   2408.  1083.          2.22
##  9 MILWAUKEE             1629   4181.  1884.          2.22
## 10 MILWAUKEE             1628   3972.  1796.          2.21
## #  with 2,643 more rows
…
## show coefficients
effects_BOUNTY <- select(tidy(lm.BOUNTY),term,estimate)
effects_SCOTT <- select(tidy(lm.SCOTT),term,estimate)
effects_PRIVATE_LABEL <- select(tidy(lm.PRIVATE_LABEL),term,estimate)

effects_BOUNTY

## # A tibble: 52 x 2
##    term                         estimate
##    <chr>                           <dbl>
##  1 (Intercept)                   -10674.
##  2 log(Average_Price)            -28478.
##  3 Market_NameBIRMINGHAM/MONTG.   -3703.
##  4 Market_NameBOSTON              21167.
##  5 Market_NameBUFFALO/ROCHESTER    -763.
##  6 Market_NameCHARLOTTE           -1574.
##  7 Market_NameCHICAGO              5560.
##  8 Market_NameCLEVELAND           -4791.
##  9 Market_NameDALLAS, TX          -2146.
## 10 Market_NameDES MOINES          -4017.
## #  with 42 more rows

effects_SCOTT

## # A tibble: 52 x 2
##    term                         estimate
##    <chr>                           <dbl>
##  1 (Intercept)                   -4576. 
##  2 log(Average_Price)            -5706. 
##  3 Market_NameBIRMINGHAM/MONTG.   -502. 
##  4 Market_NameBOSTON              1788. 
##  5 Market_NameBUFFALO/ROCHESTER    815. 
##  6 Market_NameCHARLOTTE            217. 
##  7 Market_NameCHICAGO             1853. 
##  8 Market_NameCLEVELAND          -2350. 
##  9 Market_NameDALLAS, TX           -62.6
## 10 Market_NameDES MOINES          -716. 
## #  with 42 more rows

effects_PRIVATE_LABEL

## # A tibble: 52 x 2
##    term                         estimate
##    <chr>                           <dbl>
##  1 (Intercept)                     1801.
##  2 log(Average_Price)            -10950.
##  3 Market_NameBIRMINGHAM/MONTG.   -5176.
##  4 Market_NameBOSTON              21836.
##  5 Market_NameBUFFALO/ROCHESTER   13561.
##  6 Market_NameCHARLOTTE           -3224.
##  7 Market_NameCHICAGO              7085.
##  8 Market_NameCLEVELAND           -7059.
##  9 Market_NameDALLAS, TX           1755.
## 10 Market_NameDES MOINES          -6535.
## #  with 42 more rows
